{
  "development": {
    "username": "postgres",
    "password": "123",
    "database": "Shat",
    "host": "127.0.0.1",
    "dialect": "postgres"
  },
  "test": {
    "username": "postgres",
    "password": "123",
    "database": "database_test",
    "host": "127.0.0.1",
    "dialect": "postgres"
  },
  "production": {
    "username": "dnbtrzfaqunipl",
    "password": "8f270365df6b6bff976b88cc737b80766d7b329c9ead41877e7d514ccf11ee51",
    "database": "d9t76so5c19g52",
    "host": "ec2-54-228-235-185.eu-west-1.compute.amazonaws.com",
    "dialect": "postgres",
    "ssl": true,
    "dialectOptions": {
      "ssl": {
        "require": true
      }
    }
  }
}
